[
    {
        "description": "Method App\\Http\\Controllers\\TestController::show() has parameter $id with no type specified.",
        "fingerprint": "d7be7275a7f7c25b3002cf27be9fa8773d0f96af3a1fa77abc8e432660612227",
        "severity": "major",
        "location": {
            "path": "app/Http/Controllers/TestController.php",
            "lines": {
                "begin": 9
            }
        }
    },
    {
        "description": "Method App\\Http\\Controllers\\TestController::test() has no return type specified.",
        "fingerprint": "772406535d8efb27dd6b33c69c5f8eeea018e672511579d26e3eaf9d10ef1e51",
        "severity": "major",
        "location": {
            "path": "app/Http/Controllers/TestController.php",
            "lines": {
                "begin": 14
            }
        }
    },
    {
        "description": "Method App\\Http\\Controllers\\TestController::test() has parameter $id with no type specified.",
        "fingerprint": "b3fc46dc2cebb1d9ab6e7556ea707ce31467ea32a6202a36e25ae4984bc189a9",
        "severity": "major",
        "location": {
            "path": "app/Http/Controllers/TestController.php",
            "lines": {
                "begin": 14
            }
        }
    },
    {
        "description": "Method App\\Http\\Controllers\\TestController::test() has parameter $idd with no type specified.",
        "fingerprint": "0c9564635aed5041e4dc91c638ae653002b4b30757f3fb8f1622e1d06b99aaee",
        "severity": "major",
        "location": {
            "path": "app/Http/Controllers/TestController.php",
            "lines": {
                "begin": 14
            }
        }
    },
    {
        "description": "Method App\\Http\\Controllers\\TestController::test() has parameter $iddd with no type specified.",
        "fingerprint": "f1cbe642284c8edd2656d7cf4689ce63dc0b712c647e8dba459b48b04cc363ac",
        "severity": "major",
        "location": {
            "path": "app/Http/Controllers/TestController.php",
            "lines": {
                "begin": 14
            }
        }
    },
    {
        "description": "Method App\\Http\\Controllers\\TestController::test() has parameter $idddd with no type specified.",
        "fingerprint": "8c33e63063dff5d5889593e4fe9ff27fcc4751684bb13e09ec7ef9c0667f280d",
        "severity": "major",
        "location": {
            "path": "app/Http/Controllers/TestController.php",
            "lines": {
                "begin": 14
            }
        }
    },
    {
        "description": "Method App\\Http\\Controllers\\TestController::test() has parameter $iddddd with no type specified.",
        "fingerprint": "3ad2f8a609b66f1c4c679368b1781e3a34e86b26ec45b14bf6df251be9222fba",
        "severity": "major",
        "location": {
            "path": "app/Http/Controllers/TestController.php",
            "lines": {
                "begin": 14
            }
        }
    },
    {
        "description": "Method App\\Http\\Controllers\\TestController::test() has parameter $idddddd with no type specified.",
        "fingerprint": "4ec45e413c01e4f66da6c5b2d7241edcdb390a750bcef8737da9e4a4ca4c4678",
        "severity": "major",
        "location": {
            "path": "app/Http/Controllers/TestController.php",
            "lines": {
                "begin": 14
            }
        }
    },
    {
        "description": "Method App\\Http\\Controllers\\TestController::test() has parameter $iddddddd with no type specified.",
        "fingerprint": "899f265fda18f8e8a2e11e036429ad157f7ca9dc32508cd4e18849895f6188b9",
        "severity": "major",
        "location": {
            "path": "app/Http/Controllers/TestController.php",
            "lines": {
                "begin": 14
            }
        }
    },
    {
        "description": "Method App\\Http\\Controllers\\TestController::test() has parameter $idddddddd with no type specified.",
        "fingerprint": "cb7da5b672549a9925e80d09a4e9212474855f9c4c43ea5033715627d5d516d6",
        "severity": "major",
        "location": {
            "path": "app/Http/Controllers/TestController.php",
            "lines": {
                "begin": 14
            }
        }
    }
]